{
  "type": "minecraft:crafting_shaped",
  "pattern": [
    "GDG",
    "DPD",
    "GDG"
  ],
  "key": {
    "G": {
      "tag": "hardcoremod:item_gems"
    },
    "D": {
      "item": "hardcoremod:ultra_diamond"
    },
    "P": {
      "item": "minecraft:ender_pearl"
    }
  },
  "result": {
    "item": "hardcoremod:ultra_pearl"
  }
}