{
  "type": "minecraft:crafting_shaped",
  "pattern": [
    "MRM",
    "MCM",
    "MMM"
  ],
  "key": {
    "C": {
      "item": "hardcoremod:just_another_magnet_core"
    },
    "M": {
      "item": "hardcoremod:magnetite"
    },
    "R": {
      "item": "hardcoremod:ultra_diamond"
    }
  },
  "result": {
    "item": "hardcoremod:magnet_just_another"
  }
}