{
  "type": "minecraft:crafting_shaped",
  "pattern": [
    "MRM",
    "MCM",
    "MMM"
  ],
  "key": {
    "C": {
      "item": "hardcoremod:strong_magnet_core"
    },
    "M": {
      "item": "hardcoremod:magnetite"
    },
    "R": {
      "item": "hardcoremod:gem_iolite"
    }
  },
  "result": {
    "item": "hardcoremod:magnet_strong"
  }
}